Portfolio-6
…
CO2 %>%
  count(country)

## # A tibble: 192 x 2
##    country                 n
##  * <chr>               <int>
##  1 Afghanistan             1
##  2 Albania                 1
##  3 Algeria                 1
##  4 Andorra                 1
##  5 Angola                  1
##  6 Antigua and Barbuda     1
##  7 Argentina               1
##  8 Armenia                 1
##  9 Australia               1
## 10 Austria                 1
## # ... with 182 more rows
…
Forest %>%
  count(country)

## # A tibble: 192 x 2
##    country                 n
##  * <chr>               <int>
##  1 Afghanistan             1
##  2 Albania                 1
##  3 Algeria                 1
##  4 Andorra                 1
##  5 Angola                  1
##  6 Antigua and Barbuda     1
##  7 Argentina               1
##  8 Armenia                 1
##  9 Australia               1
## 10 Austria                 1
## # ... with 182 more rows
…
